*** Darwin 9x6 ***
Turn = 0.
  012345
0 hrfftr
1 hfftht
2 tfthfh
3 rthfhh
4 fffffh
5 ffrrth
6 tfrtft
7 hhrrhf
8 hhhfrf

*** Darwin 16x23 ***
Turn = 0.
  01234567890123456789012
0 ........tth..rf.hf..f.h
1 f.r...t.f..h.fr...t..ft
2 ...f..rrh.r....t.t.rh..
3 ..rr.t..r..hrt....f.ft.
4 fhhf...h....hf.h.t..t..
5 fhrr....f.h..rr..fh....
6 .f..f....fh.rht...h.f..
7 ..tr....hf.rhhhhf..f.fh
8 .r.rr.trh.f..r.........
9 ..th.r...tfhh......ff.r
0 tttf.f...r..rhf..frftfh
1 rr.f.t.t.f...hr..hhftr.
2 hhfh.......t.hffhrt...r
3 th....rhh.r..r.fhr.trr.
4 .....t.....tf..t.f.rr..
5 .f..r....hf...frrh.t...

*** Darwin 23x4 ***
Turn = 0.
  0123
0 ....
1 ....
2 ..t.
3 ...t
4 ....
5 f...
6 ....
7 ....
8 ...t
9 ....
0 ..h.
1 ....
2 r..r
3 ....
4 .f..
5 f...
6 ....
7 t...
8 ...f
9 ..f.
0 ....
1 ....
2 ....
Turn = 5.
  0123
0 ....
1 ....
2 ..t.
3 ...t
4 ....
5 f...
6 ....
7 ....
8 r..t
9 ....
0 ....
1 ....
2 ....
3 ....
4 .f..
5 f.h.
6 ....
7 t..r
8 ...f
9 ..f.
0 ....
1 ....
2 ....
Turn = 10.
  0123
0 ....
1 ....
2 ..t.
3 r..t
4 r...
5 ....
6 ....
7 ....
8 ...t
9 ....
0 ....
1 ....
2 ....
3 ....
4 .f..
5 f...
6 ....
7 rr..
8 ..h.
9 ..f.
0 ...r
1 ....
2 ....
Turn = 15.
  0123
0 r...
1 .r..
2 ..t.
3 ...t
4 ....
5 ....
6 ....
7 ....
8 ...t
9 ....
0 ....
1 ....
2 ....
3 ....
4 .f..
5 rr..
6 ....
7 ....
8 ..h.
9 ..f.
0 ....
1 ....
2 r..r
Turn = 20.
  0123
0 ....
1 ....
2 ..tt
3 ...t
4 ....
5 r...
6 ....
7 ....
8 ...t
9 ....
0 r...
1 ....
2 ....
3 ...r
4 .f..
5 ....
6 ....
7 ....
8 ..h.
9 ..r.
0 .rr.
1 ....
2 ....
Turn = 25.
  0123
0 ....
1 ....
2 ..tt
3 ...t
4 ....
5 ....
6 ....
7 ..r.
8 ...r
9 r..r
0 ....
1 ....
2 ....
3 ....
4 .f..
5 ....
6 ....
7 ....
8 r...
9 .r.r
0 r...
1 ....
2 ....
Turn = 30.
  0123
0 ....
1 ....
2 ..tt
3 ...t
4 ...r
5 ...r
6 ....
7 ....
8 ....
9 ....
0 ....
1 ....
2 ...r
3 ....
4 rf..
5 ....
6 ....
7 ....
8 ....
9 ...r
0 r...
1 ...r
2 ...r
Turn = 35.
  0123
0 ....
1 ....
2 ..tt
3 ...t
4 ...t
5 ....
6 ....
7 ....
8 ...r
9 ....
0 ....
1 ....
2 ....
3 ....
4 .f..
5 ....
6 ....
7 ...r
8 ....
9 r...
0 ....
1 r..r
2 ..rr
Turn = 40.
  0123
0 ....
1 ....
2 ..tt
3 ...t
4 ...t
5 ....
6 ....
7 ....
8 ....
9 ....
0 ....
1 ....
2 ....
3 ...r
4 .f..
5 ....
6 ....
7 ....
8 ....
9 ....
0 ..rr
1 .r..
2 rr.r
Turn = 45.
  0123
0 ....
1 ....
2 ..tt
3 ...t
4 ...t
5 ....
6 ....
7 ....
8 ....
9 ....
0 ....
1 ....
2 ....
3 ....
4 .f..
5 ....
6 ..r.
7 ..r.
8 rr.r
9 ....
0 r...
1 ....
2 r...

*** Darwin 4x5 ***
Turn = 0.
  01234
0 hrfh.
1 h.rhr
2 tf.rf
3 frth.
Turn = 9.
  01234
0 tr..r
1 t.rrr
2 ttrrr
3 ttrr.
Turn = 18.
  01234
0 t.rrr
1 ttttt
2 tt.t.
3 tt.tt
Turn = 27.
  01234
0 t.ttt
1 ttttt
2 tt.t.
3 tt.tt
Turn = 36.
  01234
0 t.ttt
1 ttttt
2 tt.t.
3 tt.tt
Turn = 45.
  01234
0 t.ttt
1 ttttt
2 tt.t.
3 tt.tt
Turn = 54.
  01234
0 t.ttt
1 ttttt
2 tt.t.
3 tt.tt
Turn = 63.
  01234
0 t.ttt
1 ttttt
2 tt.t.
3 tt.tt
Turn = 72.
  01234
0 t.ttt
1 ttttt
2 tt.t.
3 tt.tt

*** Darwin 12x16 ***
Turn = 0.
  0123456789012345
0 .t..f.r...t.....
1 .....thrtff.r.tr
2 .ht.fr.hf..t...f
3 r....ft.t.f..rt.
4 ..f.h.ffr..r..t.
5 htr..t..r.t..f.t
6 .tr..hf.....t...
7 ...f...ht..t....
8 .hr.frt.r.f.th..
9 ..tf.tff...f.hrh
0 ....f..rr.rrf..t
1 ...fr..h..tt.tr.
Turn = 10.
  0123456789012345
0 tt....r...t....t
1 .t...rrtttt....t
2 ..rrr..tt..t...r
3 rr.....tt.f.r.rr
4 ....rr....r..tt.
5 tt......r.tr.ttt
6 .t........trtr..
7 r..f.tr...r.t...
8 tt..tttr.rr.t...
9 .tttttrrrrr..r.t
0 ....rttr.......t
1 h..r.t.r....r.r.
Turn = 20.
  0123456789012345
0 ttrrrrr...r.r.rr
1 .t..........r...
2 ......rtt..tt..t
3 .....rrtttt..t..
4 ......r.t.ttttt.
5 trrr..r....t.r.t
6 .r.........rrr..
7 rr.r...t....tt..
8 r.tt.rttt...t..t
9 ..ttrtttt...r..t
0 ...trrrt....r..t
1 rrr.tttrr.......
Turn = 30.
  0123456789012345
0 ttttt..tr.......
1 ..ttr..t...rr...
2 ..r....tt.r..t..
3 r.r..rrtttt.rtt.
4 ......r...ttrrrr
5 ...........tt...
6 r.........r.r..r
7 rr.r..rr..rr.t.r
8 rr.r.r......t..r
9 .rrr.rrrrt....rr
0 .rr.rrrt.......r
1 .rrrrtttr.....rr
Turn = 40.
  0123456789012345
0 tttt..tt...r..r.
1 ..ttt.tt........
2 ....t..tt.t..r.r
3 ...r..r..tttrrtt
4 .....rr...tttr..
5 ....r..r...tt.rr
6 rr.rrrr.rrrtr...
7 .....r.....rrt..
8 rr.rr...r.rr....
9 r.....r..rrr.r..
0 rrr.r.....r.....
1 rr.rrrr..r.rr.rr
Turn = 50.
  0123456789012345
0 tttt..ttt.......
1 r.ttt.trr.......
2 ...ttrtttr.tt..t
3 r.tt.r....ttt.tt
4 r.t.r.rr.rttt.tt
5 ...r..rr..r.t.t.
6 .r.rrr...r.tt...
7 ...r.r.....tttr.
8 .........r.t.rr.
9 r.rr.....r.t..r.
0 rrr.........r.r.
1 r..r..rrr......r
Turn = 60.
  0123456789012345
0 rrrt..ttttr.....
1 ..rtt.ttt.......
2 .rrrtttrr..tt..t
3 ..rrtttrr..tt.tt
4 rr...tr...rtt.tr
5 .rr...rr.r.tt.tr
6 ..rr.......tt.r.
7 .r.........tttr.
8 r.......r..t.rr.
9 r.........r.....
0 ..r........r...r
1 rrr.rr.rr.r....r
Turn = 70.
  0123456789012345
0 rrrr..tttt.....r
1 rr..t.tttt......
2 ...ttttt...tt..t
3 r.r.ttt....tt.tt
4 .rrtrtt....tt.tt
5 r.r.r...r..tt.tt
6 ...r...r...tt.t.
7 .........rttttt.
8 r..r..r....t.rt.
9 rr.r.r..r....r..
0 r.r...r..r......
1 rr...r..r.r...r.
Turn = 80.
  0123456789012345
0 r.rr..tttt......
1 r.r.ttrrrr......
2 rr..rttttr.tt..t
3 .r.rrtt.t.ttt.tt
4 ..r.ttt....tt.tt
5 ....rtt....tt.tt
6 ...rttrt...tt.t.
7 r....rr....trtt.
8 r.r..r.r....rtt.
9 ..r..r.......t..
0 ...r.........t..
1 r.rrr..........r
Turn = 90.
  0123456789012345
0 .r..rrrtrt......
1 ..rrr..trt......
2 ..rrrrrttt.ttr.t
3 rr..r.t.t.ttt.tt
4 rr.r..t....tt.tt
5 r.rr.rr....tt.tt
6 rr..rrrt...tt.t.
7 rr....r.r..t..tt
8 r....r.....tttt.
9 .r...........t..
0 .rr.........r.r.
1 r.r......rr.....

*** Darwin 4x2 ***
Turn = 0.
  01
0 tr
1 ff
2 fr
3 hf
Turn = 10.
  01
0 rt
1 tr
2 fr
3 hf
Turn = 20.
  01
0 rt
1 tr
2 fr
3 hf
Turn = 30.
  01
0 rt
1 tr
2 fr
3 hf
Turn = 40.
  01
0 rt
1 tr
2 fr
3 hf

*** Darwin 21x11 ***
Turn = 0.
  01234567890
0 h..rr......
1 tt.rrt.r.fr
2 f......frh.
3 .h.h.h.htf.
4 ..t.fth...t
5 f..fh...f.r
6 ......t..h.
7 tfh....t...
8 h.rhf.rt..r
9 rt....tr.r.
0 ..t.ht.....
1 .....r..h.h
2 ..fh..hr.rr
3 tr..f.....t
4 rfr..t.....
5 ..h.t.ft..f
6 rfh.frh..f.
7 f.ff..t.hh.
8 r....f.t.t.
9 .r..f..frt.
0 ..h...hhttr
Turn = 9.
  01234567890
0 .rrr.......
1 r..r......r
2 .....t..t.r
3 r.rttt.trr.
4 rrrtttt.rr.
5 r..tt...frr
6 r.rh..ttr.r
7 r.r....tt..
8 ..t.f.tt.r.
9 ....r.tt..r
0 ..t.tttt...
1 .....r.....
2 rrfh.....r.
3 t.r.t....r.
4 t...t.....r
5 tt..tt.t..r
6 r.....r..f.
7 rt.frtr...h
8 r..r.t.ttt.
9 ....r..ttt.
0 h...r..tttt
Turn = 18.
  01234567890
0 rrr.....r..
1 r.r....tt..
2 r....t..ttt
3 ....tt..ttt
4 .r.tttttt.t
5 .r.tt...t.r
6 rrr..rrr.rr
7 r.rr..rr..r
8 .....rtt..r
9 r.rrttttr..
0 ..rrtttt...
1 r.r..t.....
2 ....t......
3 .rr.t......
4 .t..tt.....
5 .t..tt.tt..
6 ....t...tt.
7 ..r..tt...h
8 r....t.ttt.
9 r..r..tttt.
0 r.r....tttt
Turn = 27.
  01234567890
0 r..r..r.r..
1 ...r...tt.t
2 ...r.t..ttt
3 .r.rtt..ttt
4 rrrrtt.rt.t
5 r.rrtt..ttt
6 .r..rrrrt..
7 rrr..rr....
8 ..rrr.rtt..
9 ......ttt..
0 r.r.tttt...
1 r....t.....
2 .r.tr......
3 ...rr......
4 ....tt.....
5 .tt.tt.tt..
6 .r..t...tt.
7 .r...tt...h
8 .....t.ttt.
9 .....ttttt.
0 r....tttttt
Turn = 36.
  01234567890
0 rrr.rrt...t
1 r...r.ttt.t
2 r....rrrttt
3 ..r...r.ttt
4 ....t...ttt
5 ...rtt..ttt
6 ..r.rr.tt..
7 r...rr.tt.r
8 r.....rr...
9 rr...rrr...
0 rr.........
1 r.r..r.....
2 r.........r
3 r..r.rr...r
4 .r.rtt.....
5 r..tttrtt..
6 ....t...tt.
7 ....rtt...h
8 .....t.ttt.
9 ....rttttt.
0 r.rr..ttttt
Turn = 45.
  01234567890
0 rrrrr.....t
1 ....rr.tt.t
2 r.r....tttt
3 ..r..rr.ttt
4 r..rt...ttt
5 ..r.ttt.ttt
6 ..r.tt...tt
7 .r..rrttt..
8 r...rrr....
9 r.r.......r
0 ...........
1 ....r.....r
2 ...r.......
3 r.r...r.r..
4 rr........r
5 rr...tttt..
6 r.r..rrtrtt
7 r.rr...t..t
8 ..r..rrrtt.
9 ....tttttt.
0 r..r..ttttt
Turn = 54.
  01234567890
0 ..r.r...r.t
1 ..rr...t..t
2 .r.r..rrttt
3 r....rr.trt
4 .r.r.rr.rtt
5 ...rrrr.trt
6 rrrr...rtrt
7 .r....r.tr.
8 rr.........
9 ...........
0 rr........r
1 ..r........
2 ....r......
3 ..r....r...
4 .....r.r..r
5 ...r.rr.ttt
6 rrrrrr.t.tt
7 rrr...tt.t.
8 ...r.r.ttt.
9 rr..tr.tttt
0 r.ttt.ttttt
Turn = 63.
  01234567890
0 r..r....rrr
1 r...r..trr.
2 r.r.r..trrt
3 r...r..trrr
4 rr.....rrr.
5 rr.rr....rr
6 .rr.rr..rr.
7 ....r.....r
8 ...r.......
9 ..r.....r.r
0 ....r...r..
1 .rr..rr...r
2 r..........
3 rr.....r...
4 .r.rr.....t
5 r.r.....ttt
6 .r....tt.tt
7 rrr.rttt.t.
8 rr.r...ttt.
9 rr.r.t.tttt
0 rrrr..ttttt
Turn = 72.
  01234567890
0 rrrr.rrr...
1 .r.r.rr.rrr
2 .....r.r.rr
3 ....rrrr...
4 ...r...rr.r
5 ..rrrr.rrrr
6 .r....r..r.
7 ...r......r
8 r....r....r
9 rrrr..r....
0 rrrr..r....
1 .r.....rr..
2 .r..rrr....
3 ..r........
4 rr........t
5 r....r...tt
6 r.rr..tt.tt
7 r..rrrrt.t.
8 ..r.rrrttt.
9 ...r..ttttt
0 r..rr.ttttt
Turn = 81.
  01234567890
0 rr.r..rrrr.
1 rr.r.....rr
2 r...r..r..r
3 ...r.r..rr.
4 .r.rr.rrr..
5 r.rrrr.rr.r
6 rr....r....
7 rr.r.......
8 r...rr...r.
9 rr..r.....r
0 r.rrrr...rr
1 ..rr.rr....
2 rr.r.......
3 r.....r....
4 rr........t
5 rr......rrt
6 r....rt.ttt
7 .r...rtt.t.
8 ....rtttrt.
9 ....rtttttt
0 .....tttttt
Turn = 90.
  01234567890
0 rr.rrr.rrrr
1 rrr.rr..r..
2 rr.rr...rr.
3 rrr..r.....
4 rr...r...r.
5 ..r.....rr.
6 rr......rr.
7 ..r........
8 rrr..rr..r.
9 r...rr..rrr
0 rrr...r..r.
1 ..rr..r...r
2 ..rr...rr.r
3 .....t.....
4 ..r..t....r
5 ....rt..trr
6 .....t.r.rr
7 ....rttttrr
8 .....tttt..
9 .....tttttt
0 ..rrttttttt

*** Darwin 19x19 ***
Turn = 0.
  0123456789012345678
0 rt....t.....h......
1 r...r............h.
2 ...r......r........
3 ............f......
4 .....h.............
5 .r.....t.r..t......
6 .................h.
7 ...............f...
8 .h..........h......
9 ..........r....f.r.
0 ......r...t..r.....
1 .......h..........h
2 .........h......h..
3 ....t.........t....
4 ...........h.......
5 ........ht.........
6 ....h.....t........
7 ..........r.hh.ft..
8 ........r.r....r...
Turn = 6.
  0123456789012345678
0 .....rt..r..h......
1 ...................
2 ................r..
3 ............f......
4 r.........rr.......
5 .......t....t......
6 r.................h
7 ....r..........f.h.
8 ...r......r........
9 r........r..r......
0 ...................
1 ............h......
2 ............hh.....
3 ....t.........tt...
4 .h........r........
5 .......trrr........
6 h........r.t.rr....
7 ....r..........tt.h
8 ............hr.....
Turn = 12.
  0123456789012345678
0 .........rr..r.....
1 ........r..........
2 ..........rr.......
3 .........r..t......
4 ............t......
5 .......t....t.....r
6 ..................h
7 ...............f...
8 ..........r........
9 ......r...r........
0 r.......r..........
1 ............h......
2 r...r.......hh.r...
3 ...rr.........r..h.
4 ...............r...
5 r......t...........
6 h......t...t.......
7 r..............tt..
8 r.........r.h.rr..h
Turn = 18.
  0123456789012345678
0 ....r..r.....r..r.r
1 ..r................
2 ..........r.......r
3 ..........r.t......
4 ........r...t......
5 .......t....t......
6 ...................
7 ...............r...
8 ....r......r...r...
9 r..................
0 ...................
1 ............h.....r
2 r...........hh.....
3 r..................
4 .r.r...............
5 ..r....t.....r...rr
6 ..r....t...rr......
7 .....r.........ttt.
8 ..r......r....r...h
Turn = 24.
  0123456789012345678
0 .r.....r.........r.
1 r........r...rr....
2 ....r............rr
3 ............t......
4 r...........t......
5 r......t....t......
6 r..................
7 .........r.........
8 .........r.........
9 ...................
0 .................r.
1 ............hr.....
2 ............r......
3 ...........r.......
4 .......r.r.r.......
5 ..r...rr...........
6 .....rrtt.........r
7 ...........r...tttr
8 r.............r..rr
Turn = 30.
  0123456789012345678
0 ..rr...r...r.......
1 ...................
2 ...................
3 ............tt.....
4 ...r........t.....r
5 r...r.rt....tr.....
6 ..................r
7 ...r.....r.........
8 ...r.............rr
9 ...................
0 .....rr............
1 ...................
2 ..................r
3 r....r.............
4 ...........r...r...
5 .......t.r..r......
6 .r.....tt....rr....
7 ..............r.r.r
8 ............r.r.rrr
Turn = 36.
  0123456789012345678
0 r............r.....
1 ...................
2 ...................
3 .........r..tt....r
4 ......r..r.rt......
5 rr...r....r.ttr....
6 ..r................
7 ...r...............
8 ...........r.......
9 r..................
0 r.............r..r.
1 ...................
2 ...................
3 r........r........r
4 r................r.
5 .......t.......r..r
6 .......tt........rr
7 ..........r....rr..
8 ............rrrrr..
Turn = 42.
  0123456789012345678
0 .r...r.r....r....r.
1 ...........r......r
2 ...r.......r.......
3 ..r.........ttt....
4 r...........r.r....
5 .........r..r......
6 ........r..........
7 r..................
8 ...................
9 .............r.....
0 ......r....r.......
1 ................r..
2 .rr............r.rr
3 ............r....r.
4 .............rr...r
5 .......t......r....
6 .......tt......r...
7 ....r..............
8 .r.......r.......rr
Turn = 48.
  0123456789012345678
0 r......r.r........r
1 r......r...........
2 ..........r........
3 ...........tttt....
4 ............t.t...r
5 ...rr.......t...r..
6 ..r............r.rr
7 ........r...r....rr
8 ..................r
9 r..................
0 ...................
1 ................r..
2 ................r.r
3 .........r.........
4 ........r..........
5 .......tr..........
6 .......ttr.........
7 .....r.............
8 rrr..r..........r..
Turn = 54.
  0123456789012345678
0 .............r.rrr.
1 .r......r......r...
2 .r.................
3 r..........tttt....
4 ............t.t...r
5 ............t.....r
6 ............rr.....
7 r...........r...rr.
8 ..........r.......r
9 r.................r
0 ...............r...
1 ....r...r..........
2 ...................
3 ...................
4 r.r................
5 r.r.....r.r........
6 ..........r........
7 ..........r........
8 .rr....rr.r........
Turn = 60.
  0123456789012345678
0 r...r........r.....
1 .........r.......r.
2 r..................
3 ...........ttttrr.r
4 ............t.t....
5 ............rr.r...
6 ............tt.r...
7 ......r......t.r...
8 ......r............
9 r..................
0 .........r.........
1 ...................
2 rr.................
3 r..r...............
4 r.........r........
5 ........r.....r.r..
6 ....r.r.........r..
7 ....r...........r..
8 r....r..r..........

*** Darwin 25x17 ***
Turn = 0.
  01234567890123456
0 ...r.....rtt.h.h.
1 ....ht.r...ft..f.
2 ...fft..f..t..r..
3 r.th..r.h...t.h..
4 hh..rh...h...fh..
5 h...f.t.rh.......
6 f.r.f...thfft.rr.
7 ..r..r.t.f..thtft
8 ...fr.r....trth..
9 tf.f...ft.f..h.t.
0 ..t.f...rr...hhht
1 ..ffhttf...t....t
2 t..ft.h.t.tt..rtt
3 .ft..r.ht...h..t.
4 rfrrhf.rrf.r..tr.
5 .rfthh.ht..h..trh
6 .hr..ftr.f...f..h
7 ....tth.....f.fr.
8 r.....r..r.......
9 r........t.r.....
0 t..th...r.r.hf...
1 r.rrfr.tf.h...tth
2 ...rf....h...tr..
3 .hhfff....rrh...h
4 ..hh.h..ftrt...h.
Turn = 7.
  01234567890123456
0 .h.......r.r.rrr.
1 r...tt....rrt..rr
2 ...ttt..r..tt..r.
3 ..tt....rr.tt....
4 h.tt.hh......fh..
5 h.trr....rr..r...
6 f.rr......ttr....
7 .......r.f..trt.t
8 t......rt..tttt..
9 trrr...rr.f..t.t.
0 ..r.r.r..rrt...tt
1 .rrttrrrr..t....t
2 t.rttrrtr..t..ttt
3 r..tt.tt.r.t..ttt
4 ..r.r..rrt....ttt
5 .r..r.rtrh....t.h
6 ....trtt.f..hfr..
7 r...rtt...r.f.r.r
8 rrr.r.....r..r...
9 rrrr....rr...r...
0 ..r.r.rrr.......r
1 ..h..r.r......tt.
2 ..rrrr.......tt..
3 h...rr....t...tt.
4 h..r...rtttr..rrr
Turn = 14.
  01234567890123456
0 .h........rr.....
1 r...tt...r.tttt..
2 ...trrr....r.....
3 ..tt....r.rttt..r
4 ..rt.hrr...r....r
5 r.rtt.rr..r..r.rr
6 .rr.........r...r
7 r.r.rrr...rr.rt.t
8 .t.rr..r..rr.tt..
9 rtr.....r..r.t.t.
0 rr...r...tttt..tt
1 rrr.r......t....t
2 r..........r..ttt
3 rrrr.trrrrrr..ttt
4 r.r.rttrttrr..ttt
5 .....rrtr..r....r
6 r...rrtt...rrf.rr
7 r.rr.tr.rr.r.....
8 rrr..tr..r..r.r.r
9 rrrrrt...........
0 .r.rr...r..r.....
1 r.....r...r..rrr.
2 ........rr...tt.r
3 r........rt...tt.
4 rrr..r.r.rt...ttt
Turn = 21.
  01234567890123456
0 ...rttt..........
1 r...ttt....tttt.r
2 r....tr....t.tr..
3 ..ttrr.r...tttr..
4 ..rrrr..r.r......
5 r.r.rrr..r.......
6 rr.r.r...r.r.r...
7 ......rrr.......r
8 rrrrr...r......tt
9 .rr.r.......r..tt
0 rrrrr.r..tt....tt
1 rrrr......t.r.t.t
2 r.rr.t.rrr.r..ttt
3 .r..rtttttrrrr.tt
4 r.r.rtttt...r.rtt
5 rrr..tttt.....rrr
6 rr...ttrr....frr.
7 r.r.r.....r.r...r
8 rrr........rr....
9 ....r....r.....r.
0 r......rrr.rr....
1 .....rrrr.r......
2 rr.r....r..r..ttt
3 rr...rr.....rtrtt
4 ..r...r.r...rrttt

*** Darwin 7x12 ***
Turn = 0.
  012345678901
0 hhthhthfhrrh
1 fhttrfrfhhht
2 ffthrtfthrhf
3 rrrrftthtftr
4 fhfhtfhttrfr
5 tttrfrthhhrt
6 rttrhhfrfrth
Turn = 9.
  012345678901
0 tttttttttttr
1 ttttttttttrr
2 rttrrttttrrr
3 rrrrtttttrrr
4 rrrrtrtrtrrr
5 rrrrrtrrrrrr
6 rrrrrrrrrrrr
Turn = 18.
  012345678901
0 tttttttttttr
1 ttttttttttrr
2 rttrtttttttt
3 rtrttrtttttt
4 rrrrrrrtrtrt
5 rrrrrrrrrrrr
6 rrrrrrrrrrrr
Turn = 27.
  012345678901
0 tttttttttttt
1 tttttttttttt
2 tttttttttttt
3 rttrtttttttt
4 trrtrttttttr
5 rrrrrttrtttr
6 rrrrrrrrtttr
Turn = 36.
  012345678901
0 tttttttttttt
1 tttttttttttt
2 tttttttttttt
3 tttttttttttt
4 tttttttttttt
5 rttttttttttt
6 rrtttttttttt
Turn = 45.
  012345678901
0 tttttttttttt
1 tttttttttttt
2 tttttttttttt
3 tttttttttttt
4 tttttttttttt
5 tttttttttttt
6 tttttttttttt
Turn = 54.
  012345678901
0 tttttttttttt
1 tttttttttttt
2 tttttttttttt
3 tttttttttttt
4 tttttttttttt
5 tttttttttttt
6 tttttttttttt
Turn = 63.
  012345678901
0 tttttttttttt
1 tttttttttttt
2 tttttttttttt
3 tttttttttttt
4 tttttttttttt
5 tttttttttttt
6 tttttttttttt
Turn = 72.
  012345678901
0 tttttttttttt
1 tttttttttttt
2 tttttttttttt
3 tttttttttttt
4 tttttttttttt
5 tttttttttttt
6 tttttttttttt
Turn = 81.
  012345678901
0 tttttttttttt
1 tttttttttttt
2 tttttttttttt
3 tttttttttttt
4 tttttttttttt
5 tttttttttttt
6 tttttttttttt
Turn = 90.
  012345678901
0 tttttttttttt
1 tttttttttttt
2 tttttttttttt
3 tttttttttttt
4 tttttttttttt
5 tttttttttttt
6 tttttttttttt

*** Darwin 4x27 ***
Turn = 0.
  012345678901234567890123456
0 fttfhfrfrththtfrhhftrhrhfrr
1 hfhfhrtrfhtrttfhthfhtthtrtt
2 hrfrrhhrffrthfftrrtrrtfhfff
3 hhhfttrhhrfrrhrhrhtrfrhrttt
Turn = 5.
  012345678901234567890123456
0 fttttrrrrrrrrtttttttttttttr
1 ttttttrrrrrrrtttttttrrttttr
2 ttttttrrrrrrrrrrtttrrrrtttt
3 thtttrrrrrrrrrrrttrrrrrtttt
Turn = 10.
  012345678901234567890123456
0 tttttttrrrrrrrrtttttttttttt
1 tttttrrrrrrrrrrrttttrtrtttt
2 tttttrrrrrrrrtttttttrrrtttt
3 tttttrrrrrrrtttttttttrrtttt
Turn = 15.
  012345678901234567890123456
0 ttttttttttrrrrrrttttttttttt
1 tttttrrrttrrrrttttttttttttt
2 ttttrtrrrrrrrrrtttttttttrtt
3 tttttrrrrrrrrrrttttttttrttt
Turn = 20.
  012345678901234567890123456
0 ttttttttrrrtrrrrttttttttttt
1 tttttttrrrrrrrrrrtttttttttt
2 tttttttrrrrrrrrtrtttttttttt
3 ttttttrrrrrrrrrtttttttttttt
Turn = 25.
  012345678901234567890123456
0 tttttttttrrtrrrrrrttttttttt
1 ttttttttttrrrrrrrrttttttttt
2 ttttttttttttrrrrrrttttttttt
3 ttttttttrrrtrrrrrtttttttttt
Turn = 30.
  012345678901234567890123456
0 ttttttttttttrrrrrrrtttttttt
1 ttttttttttttrrrrrrttttttttt
2 tttttttttttttttrrrttttttttt
3 tttttttttttttttrrtttttttttt
Turn = 35.
  012345678901234567890123456
0 ttttttttttttttrrrrrrttttttt
1 ttttttttttttttrrrrrtttttttt
2 ttttttttttttttttrrrtttttttt
3 ttttttttttttttttrrttrtttttt

*** Darwin 14x7 ***
Turn = 0.
  0123456
0 ttrttfh
1 htffhth
2 thftftf
3 trfhhfh
4 thffhtf
5 ftftfrh
6 hfthhrf
7 fthftrh
8 f.fftrr
9 fhtfftr
0 frhrrff
1 rthhfrt
2 ffhhttt
3 hthhfft

*** Darwin 25x2 ***
Turn = 0.
  01
0 hh
1 ht
2 tr
3 hf
4 fh
5 tf
6 ht
7 ht
8 rt
9 tr
0 ht
1 hh
2 hr
3 ht
4 ff
5 hr
6 rr
7 hr
8 rf
9 fh
0 tf
1 fh
2 ft
3 rr
4 tr
Turn = 10.
  01
0 rr
1 rt
2 tt
3 tt
4 tt
5 tt
6 tt
7 tt
8 tt
9 tt
0 tr
1 rr
2 rr
3 rr
4 rr
5 rr
6 rr
7 rr
8 rr
9 rr
0 rr
1 rr
2 rr
3 rr
4 rr
Turn = 20.
  01
0 rr
1 rr
2 rr
3 rr
4 tr
5 tt
6 tt
7 tt
8 tt
9 tt
0 tt
1 tt
2 tt
3 rr
4 rr
5 rr
6 rr
7 rr
8 rr
9 rr
0 rr
1 rr
2 rr
3 rr
4 rr

*** Darwin 2x18 ***
Turn = 0.
  012345678901234567
0 htrhrftrhthhhhtrrt
1 rthhtthfrffrhfhtfr
Turn = 7.
  012345678901234567
0 rrrrrrrrrttttttrrr
1 rrrrrrrrrtttttrrrr
Turn = 14.
  012345678901234567
0 rrrrrrtttrtttttttt
1 rrrrrrrrrrtttttrrr
Turn = 21.
  012345678901234567
0 rrrrrrrrrttttttrtt
1 rrrrrrrrrttttttttt

*** Darwin 19x6 ***
Turn = 0.
  012345
0 ......
1 ......
2 ......
3 ......
4 ......
5 ......
6 ......
7 ......
8 ......
9 ......
0 ......
1 ......
2 ......
3 ......
4 ......
5 ......
6 ...r..
7 ......
8 ......
Turn = 7.
  012345
0 ......
1 ......
2 ......
3 ......
4 ......
5 ......
6 ......
7 ......
8 ......
9 ......
0 ......
1 ......
2 ......
3 r.....
4 ......
5 ......
6 ......
7 ......
8 ......
Turn = 14.
  012345
0 ......
1 ......
2 ......
3 ......
4 ......
5 ......
6 r.....
7 ......
8 ......
9 ......
0 ......
1 ......
2 ......
3 ......
4 ......
5 ......
6 ......
7 ......
8 ......
Turn = 21.
  012345
0 r.....
1 ......
2 ......
3 ......
4 ......
5 ......
6 ......
7 ......
8 ......
9 ......
0 ......
1 ......
2 ......
3 ......
4 ......
5 ......
6 ......
7 ......
8 ......
Turn = 28.
  012345
0 .....r
1 ......
2 ......
3 ......
4 ......
5 ......
6 ......
7 ......
8 ......
9 ......
0 ......
1 ......
2 ......
3 ......
4 ......
5 ......
6 ......
7 ......
8 ......
Turn = 35.
  012345
0 ......
1 ......
2 ......
3 ......
4 ......
5 ......
6 .....r
7 ......
8 ......
9 ......
0 ......
1 ......
2 ......
3 ......
4 ......
5 ......
6 ......
7 ......
8 ......
Turn = 42.
  012345
0 ......
1 ......
2 ......
3 ......
4 ......
5 ......
6 ......
7 ......
8 ......
9 ......
0 ......
1 ......
2 ......
3 .....r
4 ......
5 ......
6 ......
7 ......
8 ......

*** Darwin 16x26 ***
Turn = 0.
  01234567890123456789012345
0 ............rf............
1 ...t..f....f..............
2 .....................h....
3 ..t............f......th..
4 ..............t...........
5 ...........h..............
6 ................h.........
7 .................t........
8 ..........................
9 .........f....h.....f.....
0 ....t......t.hr...h.......
1 ........t..........h......
2 .....r.........hf.r.......
3 ........h..h..............
4 ........r........t...ff...
5 ........................r.
Turn = 7.
  01234567890123456789012345
0 .............f............
1 ...t..f....f..............
2 ...........h.............h
3 ..t..........h.f......t...
4 ..............t...........
5 .....r....................
6 .........h................
7 ............r....t........
8 ........................r.
9 .........rr.........f.....
0 ....t.....rh...........h..
1 ........t.................
2 ........h..rrr............
3 ..........................
4 ...............r.t...ff...
5 ........h..h.......h......
Turn = 14.
  01234567890123456789012345
0 ......r......f............
1 ...t..f....f.h..........r.
2 ...........h.............h
3 ..t............f......t...
4 ..........r...t...........
5 .............r............
6 ..h.......................
7 .................t........
8 ..........................
9 ...r....r...........f.....
0 ....th..r.................
1 ........tt................
2 ........t.................
3 ..........................
4 ........r.......tt...ff...
5 ........h......r...h...h..
Turn = 21.
  01234567890123456789012345
0 ..........rrrr.....r......
1 ...t..f....hr.............
2 ...............r.........h
3 ..t............f......t...
4 ..............t...........
5 ..........................
6 h.........................
7 .................t........
8 ..........................
9 .r..................f.....
0 ....ttt...................
1 ........tt................
2 r.......t.................
3 ..........................
4 .r..............tt...ff...
5 ........h.......t..h...h..
Turn = 28.
  01234567890123456789012345
0 ....r.r.r....r............
1 ...t..f...................
2 ..............rr......t..h
3 ..t............f......t...
4 ..............t...........
5 r..........r..............
6 ..........................
7 .r...............t........
8 ..........................
9 ....................f.....
0 ....ttt...................
1 ........tt................
2 ........t.................
3 .....r....................
4 ................tt...ff...
5 ...r....h.......t..h...h..
Turn = 35.
  01234567890123456789012345
0 rrr...r...................
1 ..rt..f...................
2 ..........r...........t..h
3 ..t...............r...t...
4 ..................r.......
5 ..........................
6 ..........................
7 ........r........t........
8 ..........................
9 ...............r....f.....
0 ....ttt...................
1 ........tt................
2 ........t..r..............
3 ............r.............
4 .......r........tt...ff...
5 ..........r.....t..h...h..
Turn = 42.
  01234567890123456789012345
0 r.........................
1 .r........................
2 ...r.rr...............t..h
3 r.t..................tt...
4 .r....................t...
5 ..........................
6 .r........................
7 .......r.......r.t........
8 ..........................
9 ....................f.....
0 ....ttt...................
1 ........tt................
2 ........t.........r.......
3 ................t.........
4 ................rt...ff...
5 ........r......rr..h...h..
Turn = 49.
  01234567890123456789012345
0 .......r..................
1 .......r..................
2 ......................t..h
3 ..t.............r....tt...
4 ......................t...
5 r.........................
6 ..........................
7 ..........................
8 .r........................
9 .....tr.............f.....
0 r...ttt...................
1 .r......tt......r.........
2 ........t........r.......r
3 .r...........r............
4 ...........r.....t...ff...
5 .r................rr...h..
Turn = 56.
  01234567890123456789012345
0 .............rr...........
1 r.........................
2 ......................t..h
3 ..t..................tt...
4 ................r.....t...
5 ..........................
6 ..........................
7 ..........................
8 ..........................
9 .....tt.............f.....
0 ....ttt...................
1 r.......tt...........r....
2 r.......t.................
3 ......r...................
4 ....rr..............rrr.r.
5 rr...r.......r.........r.r
Turn = 63.
  01234567890123456789012345
0 ........r.........r.......
1 ..........................
2 ......................t..h
3 ..t..................tt...
4 .....................rt...
5 ..........................
6 ..........................
7 r............r..........r.
8 .....................r....
9 .....tt.............f....r
0 ....ttt...................
1 r......rtt................
2 ....r..rt.................
3 r........r................
4 r.........................
5 .r......r.......rr..r.....
Turn = 70.
  01234567890123456789012345
0 .r..................r...rr
1 .....................r....
2 ......................t..r
3 ..t............r......t..r
4 ........r.............t...
5 ..........................
6 ....r.....................
7 ...r....r.................
8 ..........................
9 .....ttt............f.....
0 r....tt...................
1 r...........r.............
2 .rr.r........r............
3 ......r...................
4 .............r............
5 .r.......rr..r............
Turn = 77.
  01234567890123456789012345
0 ..rrr.r.r....r..r.....r.r.
1 ..........................
2 ......................t...
3 r.t.....r.............ttr.
4 r.....................t...
5 ..........................
6 ..........................
7 ..........................
8 ..........................
9 .....ttt............f.....
0 r....tt...................
1 ...................r......
2 ....................r.....
3 ..r..........r............
4 r..................r......
5 .rrr..r...................
Turn = 84.
  01234567890123456789012345
0 .r......rr.....r.r........
1 r.r.......................
2 ......................t...
3 rrr...................tt..
4 r..........r..........t...
5 .....r....................
6 ..r...r...................
7 r.........................
8 ..........................
9 .....ttt............f.....
0 .r...tt.................r.
1 .........................r
2 .........................r
3 ....................r.....
4 r........................r
5 .rr.......................
Turn = 91.
  01234567890123456789012345
0 r...r...r.r...............
1 .r...r....................
2 .....r................t...
3 .....rr...............tt..
4 ......................t..r
5 ..........................
6 r...r.....................
7 r...r..r..................
8 .r....t..................r
9 rr.r..tt............f.....
0 .....tt...................
1 ...........r..............
2 ..................r.......
3 ..........................
4 .......................r.r
5 r.........................

*** Darwin 27x5 ***
Turn = 0.
  01234
0 trtfh
1 hhffr
2 hffhf
3 tfttr
4 rrfhf
5 frrfr
6 hrhtr
7 rtrhf
8 hhfff
9 thtft
0 ttfft
1 trtth
2 frtft
3 trffh
4 ffhrh
5 ftttr
6 hhtrt
7 rhftf
8 rhhff
9 rtrhf
0 tffhr
1 ttfhh
2 trfhf
3 frhhh
4 htftr
5 ttrhf
6 hrhfh
Turn = 10.
  01234
0 ttttt
1 ttttt
2 ttttt
3 ttttt
4 ttttt
5 ttttt
6 ttttt
7 ttttt
8 ttttt
9 ttttt
0 ttttt
1 ttttt
2 ttttt
3 ttttt
4 ttttt
5 ttttt
6 trttt
7 rrttt
8 ttttt
9 ttttt
0 ttttt
1 ttttt
2 ttttt
3 ttttt
4 ttttt
5 ttttt
6 ttttt

*** Darwin 23x11 ***
Turn = 0.
  01234567890
0 rt..thtr..r
1 t.t.fhf.h..
2 .thhffrrh.f
3 .r.h...ht.r
4 ft..tf.r.hf
5 f.hrt...tfr
6 rh.h.f...rt
7 tt..fr..htr
8 f....frrh..
9 rt.hh..t.tt
0 t...rtfh.hh
1 hh.rr.rffh.
2 r.r.fhr.ffh
3 ..h.r.hhh.f
4 hh..f......
5 fr...rr...t
6 .rf.th..t.f
7 rtth.tthhtf
8 h.tt.fr..rt
9 .hft.r....h
0 ....htrhh.h
1 ..ttr.r.tf.
2 r..fhf.r.f.

*** Darwin 26x23 ***
Turn = 0.
  01234567890123456789012
0 t..t..rf...........r.f.
1 .t...t.........h..t....
2 ....f.r.............f..
3 ...r.........f..h..r..t
4 ..hf........r..f...h...
5 .....f..............r..
6 ..........h.h..........
7 .t..rr........h....r...
8 ..f.........r.h.......r
9 .................t.....
0 .t...r.......frf..t..tt
1 ...rhh.r.....thf.......
2 ..f..h...f..........t..
3 ..r...fr...tr....h.....
4 ...............f...tt..
5 ........t.....f......t.
6 ........h....t.fr......
7 .....hh...r............
8 .....r..h..........f...
9 ....r....h...f........f
0 .......f....ft..r..t.h.
1 ........r...f...r..ffh.
2 ...f......rhh.t.rhrht..
3 r............h.........
4 .t....h................
5 ..r.th...h..h........r.
Turn = 6.
  01234567890123456789012
0 t..t.t.....r.r.h......r
1 .t...t............t.r..
2 ....f...............rrr
3 .........r...fh........
4 h..r..r........fh....r.
5 .r.rrf.r......r.......r
6 ................h.h....
7 ....r..................
8 r.r........r........h..
9 ...........r.....t.....
0 .tr.........tt.f..t..tt
1 .....r...r..tt.f.......
2 ..f..r...f..........t..
3 ...........t..........h
4 ..............hrr..tt..
5 ...r....t.....f......t.
6 ......r.t.rr...........
7 h......trr.............
8 ......r............f...
9 ..r.......r.tt........f
0 .......f.h..tt......rrh
1 ............f.t...rr..h
2 ...f..h.......tt.r.....
3 .......h...........r...
4 .t..................r..
5 .t..tttrr..h...rrr.....
Turn = 12.
  01234567890123456789012
0 t..trt.r.......r...rr..
1 ..r.rt............t.r..
2 rr..........r.....t....
3 r...........h.r.......r
4 ...............rrr...r.
5 .rr..r..r....r........r
6 r....r..............h..
7 .r...r...............r.
8 .....r................h
9 .....rr..........t.....
0 ............tt..r.t..tt
1 ...........ttt..r......
2 ..f......f.......r..t..
3 r.r........t..........h
4 ..............h...ttr..
5 .r......tt....f.....rt.
6 ........t..........r...
7 h.....ttttt........r...
8 .........h............r
9 ...........ttt...r...rr
0 .......f....tt.........
1 ...r........rr.t.......
2 ...fh.........ttt......
3 .h..............t.....r
4 .t....r..............r.
5 .t..ttttt..h........r.r
Turn = 18.
  01234567890123456789012
0 t..rrr..r.....rrrrrt...
1 t..rrr.r..........tt...
2 ....r.r...........t....
3 .....rh..............r.
4 r.................r....
5 .rrr...............r...
6 ..r....................
7 r.....................r
8 ....................rtr
9 .............tr..t...t.
0 ............tt...tt..tt
1 r.r........ttt....t....
2 r........f..........r.r
3 ......r....t......r..rr
4 ..............h.r...r..
5 ......r.tt....f...r....
6 r.......t.............r
7 ......ttttt.......r....
8 ....r....t........r....
9 r..r.......ttt.r.r.....
0 .......f....tt......r..
1 rr....rr.......t.......
2 ..............ttt.....r
3 h...............t......
4 .t........r.......r....
5 .t..ttttt..h..........r
Turn = 24.
  01234567890123456789012
0 rrr.r....r.r.r.....t...
1 rrrr.....r....rr..tt...
2 r.r.......r.......t.r..
3 rrr.............r......
4 ....r...........r......
5 .......................
6 ........r.....rr.r..r..
7 ................r.....t
8 .....................tt
9 .............t...t...t.
0 ............tt...tt..tt
1 ..r........tttt...t....
2 r...r....f............r
3 r..r......ttr....r...r.
4 .....................r.
5 ........ttr............
6 ........t.............r
7 ..r....tttt...rr......r
8 .........t..r.........r
9 ...........tttt.......r
0 ..rr..rf....tt.t...r...
1 ...............t.......
2 .r.r..r.......ttt......
3 r...............t......
4 ....r..................
5 rr..ttttt..h..rr.r.....
Turn = 30.
  01234567890123456789012
0 rrr..........r....ttr..
1 rrr.....r....r....ttr..
2 r......r........r.t....
3 .......r........r.t....
4 r..r........r.........r
5 .......................
6 .............r.........
7 ..............rr......t
8 r....r...............rt
9 ......r......tt.....rr.
0 ............tt...rt..tr
1 ......r..r.ttttt.tt.r.r
2 .......................
3 .........tttrr.r......r
4 .rrr..................r
5 ........t..............
6 ........t..r...........
7 r......ttt.t.....r.....
8 r........t.t....rr.....
9 ......r....tttrrr......
0 .......f....tt.........
1 ..............tr.......
2 ..............t.t......
3 .....t.........rtt.....
4 r....tt..r.....r.......
5 rr.tttttt..rr..........
Turn = 36.
  01234567890123456789012
0 .r....r.r........rrtr..
1 ......r.......r..rrrr..
2 .....r......r.r.rr.....
3 .............r...r.r...
4 rr.....................
5 .........r.............
6 .....................r.
7 ......................r
8 .......r........r....rt
9 ...r......r.rtt..t.r...
0 r.r........rtttt.tt...r
1 ..........r.tttt.trrr..
2 ..............t........
3 r........tttt..........
4 r......................
5 ........t..............
6 r.......t....r...r....r
7 ......tttt.rr.....r....
8 .........t.rt...r.....r
9 ..........rrttt.r......
0 rr.....f..rrtttt.......
1 ..............tt.......
2 ..r...........tt.......
3 .....t...........t.....
4 ....ttt..r.............
5 .r..rtttt.........r....
Turn = 42.
  01234567890123456789012
0 .......r.r..r.rrrr.tr..
1 ............r.r.r.rrr.r
2 ............rr.......r.
3 .......................
4 ........r.........r...r
5 ..........r............
6 ...............rr...r.r
7 .......................
8 rr........r.r..........
9 r........r..rtt..ttr...
0 .r....r.....tttt.ttr...
1 ............tttt.tt....
2 ...........t..t.r......
3 .........ttrt...r......
4 ......r...rr..........r
5 ........t..r.........r.
6 r.r.....t....r.........
7 r.....tttt.....r..r....
8 .r.......tr............
9 ...........ttt..r......
0 .......f...tt.r........
1 .r............rt.......
2 ..............r.rr.....
3 .....t...........tr....
4 r.r..ttt..r.r..........
5 ...rrrrrt.............r
Turn = 48.
  01234567890123456789012
0 ..........rr.....rr.r.r
1 ............r....r.r...
2 r..............rr.r.rrr
3 ..............r..rr....
4 r.......r..........r...
5 .........rr..r.....r...
6 ...............rr......
7 ................r......
8 ....r..........r..t...r
9 ............rttt.tt..r.
0 r.r.....r...tttt.tt....
1 ...........rrrt..ttt...
2 ...........t.rtt.......
3 .........rrtt...r......
4 .........tr.t..........
5 r.......tr.............
6 .r......tr.............
7 .....tttrr.............
8 .......tt...t..........
9 r..........ttt.........
0 r..r...f...tt.......r..
1 ............t..t.r.....
2 ...............ttt.....
3 .....t............r....
4 .....ttt...............
5 rrr.r.ttt...r.rr....r..
Turn = 54.
  01234567890123456789012
0 r..r..........r.r...rr.
1 .............r.....r...
2 ...............r......r
3 ............r........r.
4 .............r.r......r
5 ..........r.......rr...
6 ...........rr......r...
7 r..........r...t.......
8 ............r..t.rt.r.r
9 ......r..r...tttttt....
0 ........rrrrrtttttt....
1 .........r..rtt..ttt...
2 .........rrtr..t.......
3 ...........rt..........
4 ...r.......r...........
5 r..rr..................
6 .....t..r...rr.........
7 .....tttt.....r.......r
8 .......ttt..t..........
9 ......r....ttt.........
0 rr....rf...tt..........
1 r.r.........tr.t.......
2 ...............ttt....r
3 .....t.........t......r
4 .....t.r.r.............
5 r....tttt.........r.r..

*** Darwin 28x14 ***
Turn = 0.
  01234567890123
0 ..............
1 h....f........
2 .............r
3 fh.....t....t.
4 ...r..f....r..
5 .f......r.....
6 f.............
7 ..ff.h........
8 .t............
9 .h..fr........
0 .......ff.f...
1 ..............
2 .....f........
3 ......f.....h.
4 h......h.h....
5 .tfh..........
6 .......h.r....
7 ..t...........
8 .r.........t..
9 ...r....tf.tf.
0 h....r.r..r.f.
1 ..........r..h
2 .....rt....t..
3 .....h....hff.
4 ..........r...
5 .....t........
6 ..............
7 f..t..f....t.h
Turn = 7.
  01234567890123
0 .h....r.......
1 h....f........
2 ..............
3 f......t....tt
4 ..............
5 .f............
6 f............r
7 h.ffhr........
8 .t............
9 .t..f....rr...
0 .......ff.r...
1 .......h...r..
2 .....f.h......
3 ......f......h
4 ..h..........r
5 .r..r.....h...
6 ...r.....r....
7 ....r.....r..r
8 .......r..rt..
9 ........rr.tt.
0 .......hr.....
1 ........r.r...
2 ...........tr.
3 ...........tt.
4 .....tr.......
5 .....t........
6 ..............
7 f..t..f....t.h
Turn = 14.
  01234567890123
0 .rr...........
1 h....f........
2 .........r....
3 f......t....tt
4 ..............
5 .f............
6 f...........r.
7 h.ffh..r.r....
8 .t............
9 .t..f..h.r....
0 rt...r.r..r...
1 ..........r...
2 .......r......
3 .....rf..r..rr
4 ..........r...
5 ...........r..
6 .....r........
7 ..........rr.r
8 ...........r..
9 ......rr...tt.
0 .............t
1 ............tt
2 ...........tt.
3 ...........tt.
4 .....ttt......
5 .....t..r.....
6 ..............
7 f..t..f....t.h
Turn = 21.
  01234567890123
0 .....r...r....
1 h....f.r......
2 .......h.r....
3 f...r..r..r.tt
4 rr........r.t.
5 rr............
6 ..rr........r.
7 .rrh..........
8 ..r...........
9 .t..f.........
0 .tt...........
1 ..........r...
2 .............r
3 ..rr..........
4 ...r..........
5 r.............
6 .........rr...
7 .........r....
8 .............t
9 ...........ttt
0 .....r.......t
1 ............tt
2 ...........tt.
3 .....r.....tt.
4 .....tt...r...
5 .....t.r......
6 ..............
7 f..t..f...tt.h
Turn = 28.
  01234567890123
0 rr.rr..r...r..
1 rr...f.r......
2 r..r..........
3 r.r.........tt
4 ....r..rr.r.t.
5 ....r.......t.
6 ..............
7 ........r.....
8 .........r....
9 rt..f.........
0 .tt...........
1 r.............
2 ..............
3 r...r.........
4 r.............
5 ..............
6 ..rr..........
7 ..r..........t
8 r............t
9 ...........ttt
0 .............t
1 ............tt
2 r..........tt.
3 ...........tt.
4 ......t.....t.
5 .r...r........
6 ..............
7 f..t.rf..ttt.h
Turn = 35.
  01234567890123
0 rr.r........r.
1 .rr.r.........
2 ...r..........
3 ....r....r..tt
4 ...........tt.
5 .r.........rtr
6 ...r..........
7 .r...........r
8 r............r
9 .t..f.........
0 rtt...........
1 .t.....rr.....
2 r.............
3 r.r...r....r..
4 ..............
5 ..............
6 ..............
7 .............t
8 .............t
9 ...........ttt
0 .r..r........t
1 ............tt
2 ..r........tt.
3 ..r........tt.
4 ......t.....t.
5 ..............
6 ..r.......r...
7 rr....f..ttt.h
Turn = 42.
  01234567890123
0 .........rr...
1 ..............
2 r.............
3 ...........ttt
4 r..........tt.
5 .............r
6 .r............
7 ..r.r.r......r
8 rrr.r.........
9 r.rrr.........
0 .rr...........
1 rr..r.........
2 ....r......r.r
3 ...r.....rr...
4 ..............
5 ..............
6 ..............
7 .............t
8 .......rr....t
9 ..r........ttt
0 ...........r.t
1 r...........tt
2 .........r.tt.
3 ....r....r.ttr
4 ....r.t.....t.
5 ..............
6 ..............
7 ......f..ttt.h
